.............
----------------------------------------------------------------------
Ran 13 tests in 0.010s

OK
Name             Stmts   Miss Branch BrPart  Cover   Missing
------------------------------------------------------------
Collatz.py          35      0     18      0   100%
TestCollatz.py      60      0      0      0   100%
------------------------------------------------------------
TOTAL               95      0     18      0   100%
