................
----------------------------------------------------------------------
Ran 16 tests in 0.064s

OK
Name             Stmts   Miss Branch BrPart  Cover   Missing
------------------------------------------------------------
Collatz.py          39      0     14      0   100%
TestCollatz.py      69      0      2      0   100%
------------------------------------------------------------
TOTAL              108      0     16      0   100%
